%!PS-Adobe-3.0 EPSF-3.0
%%DocumentNeededResources: font Helvetica
%%+ font Helvetica-Bold
%%+ font Helvetica-Oblique
%%+ font Helvetica-BoldOblique
%%+ font Symbol
%%Title: R Graphics Output
%%Creator: R Software
%%Pages: (atend)
%%BoundingBox: 18 133 577 709
%%EndComments
%%BeginProlog
/bp  { gs sRGB gs } def
% begin .ps.prolog
/gs  { gsave } bind def
/gr  { grestore } bind def
/ep  { showpage gr gr } bind def
/m   { moveto } bind def
/l  { rlineto } bind def
/np  { newpath } bind def
/cp  { closepath } bind def
/f   { fill } bind def
/o   { stroke } bind def
/c   { newpath 0 360 arc } bind def
/r   { 4 2 roll moveto 1 copy 3 -1 roll exch 0 exch rlineto 0 rlineto -1 mul 0 exch rlineto closepath } bind def
/p1  { stroke } bind def
/p2  { gsave bg fill grestore newpath } bind def
/p3  { gsave bg fill grestore stroke } bind def
/p6  { gsave bg eofill grestore newpath } bind def
/p7  { gsave bg eofill grestore stroke } bind def
/t   { 5 -2 roll moveto gsave rotate
       1 index stringwidth pop
       mul neg 0 rmoveto show grestore } bind def
/ta  { 4 -2 roll moveto gsave rotate show } bind def
/tb  { 2 -1 roll 0 rmoveto show } bind def
/cl  { grestore gsave newpath 3 index 3 index moveto 1 index
       4 -1 roll lineto  exch 1 index lineto lineto
       closepath clip newpath } bind def
/rgb { setrgbcolor } bind def
/s   { scalefont setfont } bind def
% end   .ps.prolog
/sRGB { [ /CIEBasedABC
          << /DecodeLMN
               [ { dup 0.03928 le
                        {12.92321 div}
                        {0.055 add 1.055 div 2.4 exp }
                     ifelse
                 } bind dup dup
               ]
             /MatrixLMN [0.412457 0.212673 0.019334
                         0.357576 0.715152 0.119192
                         0.180437 0.072175 0.950301]
             /WhitePoint [0.9505 1.0 1.0890]
           >>
         ] setcolorspace } bind def
/srgb { setcolor } bind def
% begin encoding
/WinAnsiEncoding [
 /.notdef /.notdef /.notdef /.notdef /.notdef /.notdef /.notdef /.notdef
 /.notdef /.notdef /.notdef /.notdef /.notdef /.notdef /.notdef /.notdef
 /.notdef /.notdef /.notdef /.notdef /.notdef /.notdef /.notdef /.notdef
 /.notdef /.notdef /.notdef /.notdef /.notdef /.notdef /.notdef /.notdef
 /space /exclam /quotedbl /numbersign /dollar /percent /ampersand /quoteright
 /parenleft /parenright /asterisk /plus /comma /minus /period /slash
 /zero /one /two /three /four /five /six /seven
 /eight /nine /colon /semicolon /less /equal /greater /question
 /at /A /B /C /D /E /F /G
 /H /I /J /K /L /M /N /O
 /P /Q /R /S /T /U /V /W
 /X /Y /Z /bracketleft /backslash /bracketright /asciicircum /underscore
 /grave /a /b /c /d /e /f /g
 /h /i /j /k /l /m /n /o
 /p /q /r /s /t /u /v /w
 /x /y /z /braceleft /bar /braceright /asciitilde /.notdef
 /Euro /.notdef /quotesinglbase /florin /quotedblbase /ellipsis /dagger /daggerdbl
 /circumflex /perthousand /Scaron /guilsinglleft /OE /.notdef /Zcaron /.notdef
 /.notdef /quoteleft /quoteright /quotedblleft /quotedblright /bullet /endash /emdash
 /tilde /trademark /scaron /guilsinglright /oe /.notdef /zcaron /Ydieresis
 /space /exclamdown /cent /sterling /currency /yen /brokenbar /section
 /dieresis /copyright /ordfeminine /guillemotleft /logicalnot /hyphen /registered /macron
 /degree /plusminus /twosuperior /threesuperior /acute /mu /paragraph /periodcentered
 /cedilla /onesuperior /ordmasculine /guillemotright /onequarter /onehalf /threequarters /questiondown
 /Agrave /Aacute /Acircumflex /Atilde /Adieresis /Aring /AE /Ccedilla
 /Egrave /Eacute /Ecircumflex /Edieresis /Igrave /Iacute /Icircumflex /Idieresis
 /Eth /Ntilde /Ograve /Oacute /Ocircumflex /Otilde /Odieresis /multiply
 /Oslash /Ugrave /Uacute /Ucircumflex /Udieresis /Yacute /Thorn /germandbls
 /agrave /aacute /acircumflex /atilde /adieresis /aring /ae /ccedilla
 /egrave /eacute /ecircumflex /edieresis /igrave /iacute /icircumflex /idieresis
 /eth /ntilde /ograve /oacute /ocircumflex /otilde /odieresis /divide
 /oslash /ugrave /uacute /ucircumflex /udieresis /yacute /thorn /ydieresis
]
 def
% end encoding
%%IncludeResource: font Helvetica
/Helvetica findfont
dup length dict begin
  {1 index /FID ne {def} {pop pop} ifelse} forall
  /Encoding WinAnsiEncoding def
  currentdict
  end
/Font1 exch definefont pop
%%IncludeResource: font Helvetica-Bold
/Helvetica-Bold findfont
dup length dict begin
  {1 index /FID ne {def} {pop pop} ifelse} forall
  /Encoding WinAnsiEncoding def
  currentdict
  end
/Font2 exch definefont pop
%%IncludeResource: font Helvetica-Oblique
/Helvetica-Oblique findfont
dup length dict begin
  {1 index /FID ne {def} {pop pop} ifelse} forall
  /Encoding WinAnsiEncoding def
  currentdict
  end
/Font3 exch definefont pop
%%IncludeResource: font Helvetica-BoldOblique
/Helvetica-BoldOblique findfont
dup length dict begin
  {1 index /FID ne {def} {pop pop} ifelse} forall
  /Encoding WinAnsiEncoding def
  currentdict
  end
/Font4 exch definefont pop
%%IncludeResource: font Symbol
/Symbol findfont
dup length dict begin
  {1 index /FID ne {def} {pop pop} ifelse} forall
  currentdict
  end
/Font5 exch definefont pop
%%EndProlog
%%Page: 1 1
bp
50.47 557.34 187.79 676.47 cl
0 0 0 srgb
2.25 setlinewidth
[] 0 setdash
0 setlinecap
1 setlinejoin
10.00 setmiterlimit
np
58.74 572.39 m
25.43 0 l
o
0.75 setlinewidth
[ 2.25 3.75] 0 setdash
1 setlinecap
np
71.45 562.04 m
0 0.55 l
o
np
71.45 621.95 m
0 -35.09 l
o
0.75 setlinewidth
[] 0 setdash
np
65.09 562.04 m
12.72 0 l
o
np
65.09 621.95 m
12.72 0 l
o
np
58.74 562.59 m
25.43 0 l
0 24.27 l
-25.43 0 l
0 -24.27 l
o
71.45 672.06 0.98 c p1
2.25 setlinewidth
[] 0 setdash
0 setlinecap
np
90.52 564.59 m
25.43 0 l
o
0.75 setlinewidth
[ 2.25 3.75] 0 setdash
1 setlinecap
np
103.24 563.02 m
0 0.70 l
o
np
103.24 569.22 m
0 -2.80 l
o
0.75 setlinewidth
[] 0 setdash
np
96.88 563.02 m
12.72 0 l
o
np
96.88 569.22 m
12.72 0 l
o
np
90.52 563.72 m
25.43 0 l
0 2.70 l
-25.43 0 l
0 -2.70 l
o
103.24 571.35 0.98 c p1
103.24 576.30 0.98 c p1
2.25 setlinewidth
[] 0 setdash
0 setlinecap
np
122.31 562.01 m
25.43 0 l
o
0.75 setlinewidth
[ 2.25 3.75] 0 setdash
1 setlinecap
np
135.03 561.97 m
0 0 l
o
np
135.03 562.03 m
0 -0.01 l
o
0.75 setlinewidth
[] 0 setdash
np
128.67 561.97 m
12.71 0 l
o
np
128.67 562.03 m
12.71 0 l
o
np
122.31 561.97 m
25.43 0 l
0 0.05 l
-25.43 0 l
0 -0.05 l
o
135.03 561.75 0.98 c p1
135.03 561.75 0.98 c p1
135.03 561.75 0.98 c p1
135.03 561.75 0.98 c p1
135.03 561.75 0.98 c p1
135.03 561.87 0.98 c p1
135.03 561.77 0.98 c p1
2.25 setlinewidth
[] 0 setdash
0 setlinecap
np
154.10 561.79 m
25.43 0 l
o
0.75 setlinewidth
[ 2.25 3.75] 0 setdash
1 setlinecap
np
166.81 561.75 m
0 0.02 l
o
np
166.81 561.81 m
0 -0.01 l
o
0.75 setlinewidth
[] 0 setdash
np
160.46 561.75 m
12.71 0 l
o
np
160.46 561.81 m
12.71 0 l
o
np
154.10 561.77 m
25.43 0 l
0 0.03 l
-25.43 0 l
0 -0.03 l
o
18.00 132.94 577.28 708.94 cl
0 0 0 srgb
0.75 setlinewidth
[] 0 setdash
1 setlinecap
1 setlinejoin
10.00 setmiterlimit
np
71.45 557.34 m
95.36 0 l
o
np
71.45 557.34 m
0 -3.96 l
o
np
103.24 557.34 m
0 -3.96 l
o
np
135.03 557.34 m
0 -3.96 l
o
np
166.81 557.34 m
0 -3.96 l
o
/Font1 findfont 7 s
71.45 543.08 (CA_4) .5 0 t
103.24 543.08 (NSGAII_4) .5 0 t
166.81 543.08 (MOEAD_4) .5 0 t
np
50.47 561.75 m
0 107.57 l
o
np
50.47 561.75 m
-3.96 0 l
o
np
50.47 579.68 m
-3.96 0 l
o
np
50.47 597.60 m
-3.96 0 l
o
np
50.47 615.53 m
-3.96 0 l
o
np
50.47 633.46 m
-3.96 0 l
o
np
50.47 651.39 m
-3.96 0 l
o
np
50.47 669.32 m
-3.96 0 l
o
40.97 561.75 (0) .5 90 t
40.97 579.68 (50) .5 90 t
40.97 597.60 (100) .5 90 t
40.97 615.53 (150) .5 90 t
40.97 633.46 (200) .5 90 t
40.97 651.39 (250) .5 90 t
40.97 669.32 (300) .5 90 t
np
50.47 557.34 m
137.32 0 l
0 119.13 l
-137.32 0 l
0 -119.13 l
o
18.00 516.94 204.43 708.94 cl
/Font2 findfont 8 s
0 0 0 srgb
119.13 689.84 (EP:DTLZ1) .5 0 t
236.90 557.34 374.22 676.47 cl
236.90 557.34 374.22 676.47 cl
0 0 0 srgb
2.25 setlinewidth
[] 0 setdash
0 setlinecap
1 setlinejoin
10.00 setmiterlimit
np
245.16 633.17 m
25.43 0 l
o
0.75 setlinewidth
[ 2.25 3.75] 0 setdash
1 setlinecap
np
257.88 610.71 m
0 16.67 l
o
np
257.88 672.06 m
0 -21.43 l
o
0.75 setlinewidth
[] 0 setdash
np
251.52 610.71 m
12.71 0 l
o
np
251.52 672.06 m
12.71 0 l
o
np
245.16 627.38 m
25.43 0 l
0 23.25 l
-25.43 0 l
0 -23.25 l
o
2.25 setlinewidth
[] 0 setdash
0 setlinecap
np
276.95 570.34 m
25.43 0 l
o
0.75 setlinewidth
[ 2.25 3.75] 0 setdash
1 setlinecap
np
289.66 566.81 m
0 1.91 l
o
np
289.66 576.53 m
0 -4.00 l
o
0.75 setlinewidth
[] 0 setdash
np
283.31 566.81 m
12.71 0 l
o
np
283.31 576.53 m
12.71 0 l
o
np
276.95 568.72 m
25.43 0 l
0 3.81 l
-25.43 0 l
0 -3.81 l
o
289.66 578.32 0.98 c p1
2.25 setlinewidth
[] 0 setdash
0 setlinecap
np
308.74 581.20 m
25.43 0 l
o
0.75 setlinewidth
[ 2.25 3.75] 0 setdash
1 setlinecap
np
321.45 569.84 m
0 3.36 l
o
np
321.45 585.81 m
0 -1.64 l
o
0.75 setlinewidth
[] 0 setdash
np
315.09 569.84 m
12.72 0 l
o
np
315.09 585.81 m
12.72 0 l
o
np
308.74 573.20 m
25.43 0 l
0 10.97 l
-25.43 0 l
0 -10.97 l
o
2.25 setlinewidth
[] 0 setdash
0 setlinecap
np
340.52 578.83 m
25.43 0 l
o
0.75 setlinewidth
[ 2.25 3.75] 0 setdash
1 setlinecap
np
353.24 561.75 m
0 11.86 l
o
np
353.24 591.15 m
0 -6.90 l
o
0.75 setlinewidth
[] 0 setdash
np
346.88 561.75 m
12.72 0 l
o
np
346.88 591.15 m
12.72 0 l
o
np
340.52 573.61 m
25.43 0 l
0 10.64 l
-25.43 0 l
0 -10.64 l
o
18.00 132.94 577.28 708.94 cl
0 0 0 srgb
0.75 setlinewidth
[] 0 setdash
1 setlinecap
1 setlinejoin
10.00 setmiterlimit
np
257.88 557.34 m
95.36 0 l
o
np
257.88 557.34 m
0 -3.96 l
o
np
289.66 557.34 m
0 -3.96 l
o
np
321.45 557.34 m
0 -3.96 l
o
np
353.24 557.34 m
0 -3.96 l
o
/Font1 findfont 7 s
257.88 543.08 (CA_4) .5 0 t
289.66 543.08 (NSGAII_4) .5 0 t
353.24 543.08 (MOEAD_4) .5 0 t
np
236.90 563.70 m
0 98.08 l
o
np
236.90 563.70 m
-3.96 0 l
o
np
236.90 583.32 m
-3.96 0 l
o
np
236.90 602.94 m
-3.96 0 l
o
np
236.90 622.55 m
-3.96 0 l
o
np
236.90 642.17 m
-3.96 0 l
o
np
236.90 661.78 m
-3.96 0 l
o
227.39 563.70 (0.2) .5 90 t
227.39 583.32 (0.4) .5 90 t
227.39 602.94 (0.6) .5 90 t
227.39 622.55 (0.8) .5 90 t
227.39 642.17 (1.0) .5 90 t
227.39 661.78 (1.2) .5 90 t
np
236.90 557.34 m
137.32 0 l
0 119.13 l
-137.32 0 l
0 -119.13 l
o
204.43 516.94 390.85 708.94 cl
/Font2 findfont 8 s
0 0 0 srgb
305.56 689.84 (EP:DTLZ2) .5 0 t
423.32 557.34 560.64 676.47 cl
423.32 557.34 560.64 676.47 cl
0 0 0 srgb
2.25 setlinewidth
[] 0 setdash
0 setlinecap
1 setlinejoin
10.00 setmiterlimit
np
431.59 605.66 m
25.43 0 l
o
0.75 setlinewidth
[ 2.25 3.75] 0 setdash
1 setlinecap
np
444.30 580.58 m
0 15.19 l
o
np
444.30 651.92 m
0 -33.26 l
o
0.75 setlinewidth
[] 0 setdash
np
437.94 580.58 m
12.72 0 l
o
np
437.94 651.92 m
12.72 0 l
o
np
431.59 595.77 m
25.43 0 l
0 22.89 l
-25.43 0 l
0 -22.89 l
o
444.30 672.06 0.98 c p1
444.30 667.01 0.98 c p1
444.30 656.43 0.98 c p1
2.25 setlinewidth
[] 0 setdash
0 setlinecap
np
463.37 602.30 m
25.43 0 l
o
0.75 setlinewidth
[ 2.25 3.75] 0 setdash
1 setlinecap
np
476.09 585.67 m
0 10.29 l
o
np
476.09 612.10 m
0 -5.99 l
o
0.75 setlinewidth
[] 0 setdash
np
469.73 585.67 m
12.72 0 l
o
np
469.73 612.10 m
12.72 0 l
o
np
463.37 595.96 m
25.43 0 l
0 10.15 l
-25.43 0 l
0 -10.15 l
o
2.25 setlinewidth
[] 0 setdash
0 setlinecap
np
495.16 561.77 m
25.43 0 l
o
0.75 setlinewidth
[ 2.25 3.75] 0 setdash
1 setlinecap
np
507.88 561.75 m
0 0.01 l
o
np
507.88 561.77 m
0 0 l
o
0.75 setlinewidth
[] 0 setdash
np
501.52 561.75 m
12.71 0 l
o
np
501.52 561.77 m
12.71 0 l
o
np
495.16 561.76 m
25.43 0 l
0 0.01 l
-25.43 0 l
0 -0.01 l
o
507.88 561.90 0.98 c p1
507.88 561.90 0.98 c p1
507.88 561.84 0.98 c p1
507.88 562.03 0.98 c p1
507.88 561.94 0.98 c p1
507.88 561.90 0.98 c p1
2.25 setlinewidth
[] 0 setdash
0 setlinecap
np
526.95 578.25 m
25.43 0 l
o
0.75 setlinewidth
[ 2.25 3.75] 0 setdash
1 setlinecap
np
539.66 568.51 m
0 5.69 l
o
np
539.66 586.55 m
0 -6.94 l
o
0.75 setlinewidth
[] 0 setdash
np
533.31 568.51 m
12.71 0 l
o
np
533.31 586.55 m
12.71 0 l
o
np
526.95 574.20 m
25.43 0 l
0 5.41 l
-25.43 0 l
0 -5.41 l
o
539.66 589.25 0.98 c p1
18.00 132.94 577.28 708.94 cl
0 0 0 srgb
0.75 setlinewidth
[] 0 setdash
1 setlinecap
1 setlinejoin
10.00 setmiterlimit
np
444.30 557.34 m
95.36 0 l
o
np
444.30 557.34 m
0 -3.96 l
o
np
476.09 557.34 m
0 -3.96 l
o
np
507.88 557.34 m
0 -3.96 l
o
np
539.66 557.34 m
0 -3.96 l
o
/Font1 findfont 7 s
444.30 543.08 (CA_4) .5 0 t
476.09 543.08 (NSGAII_4) .5 0 t
539.66 543.08 (MOEAD_4) .5 0 t
np
423.32 561.63 m
0 102.38 l
o
np
423.32 561.63 m
-3.96 0 l
o
np
423.32 578.69 m
-3.96 0 l
o
np
423.32 595.76 m
-3.96 0 l
o
np
423.32 612.82 m
-3.96 0 l
o
np
423.32 629.89 m
-3.96 0 l
o
np
423.32 646.95 m
-3.96 0 l
o
np
423.32 664.01 m
-3.96 0 l
o
413.82 561.63 (0.0) .5 90 t
413.82 578.69 (0.5) .5 90 t
413.82 595.76 (1.0) .5 90 t
413.82 612.82 (1.5) .5 90 t
413.82 629.89 (2.0) .5 90 t
413.82 646.95 (2.5) .5 90 t
413.82 664.01 (3.0) .5 90 t
np
423.32 557.34 m
137.32 0 l
0 119.13 l
-137.32 0 l
0 -119.13 l
o
390.85 516.94 577.28 708.94 cl
/Font2 findfont 8 s
0 0 0 srgb
491.98 689.84 (EP:DTLZ3) .5 0 t
50.47 365.34 187.79 484.47 cl
50.47 365.34 187.79 484.47 cl
0 0 0 srgb
2.25 setlinewidth
[] 0 setdash
0 setlinecap
1 setlinejoin
10.00 setmiterlimit
np
58.74 393.08 m
25.43 0 l
o
0.75 setlinewidth
[ 2.25 3.75] 0 setdash
1 setlinecap
np
71.45 385.60 m
0 6.02 l
o
np
71.45 401.96 m
0 -6.19 l
o
0.75 setlinewidth
[] 0 setdash
np
65.09 385.60 m
12.72 0 l
o
np
65.09 401.96 m
12.72 0 l
o
np
58.74 391.62 m
25.43 0 l
0 4.15 l
-25.43 0 l
0 -4.15 l
o
71.45 480.06 0.98 c p1
2.25 setlinewidth
[] 0 setdash
0 setlinecap
np
90.52 372.05 m
25.43 0 l
o
0.75 setlinewidth
[ 2.25 3.75] 0 setdash
1 setlinecap
np
103.24 369.75 m
0 1.47 l
o
np
103.24 376.32 m
0 -3.02 l
o
0.75 setlinewidth
[] 0 setdash
np
96.88 369.75 m
12.72 0 l
o
np
96.88 376.32 m
12.72 0 l
o
np
90.52 371.22 m
25.43 0 l
0 2.08 l
-25.43 0 l
0 -2.08 l
o
2.25 setlinewidth
[] 0 setdash
0 setlinecap
np
122.31 372.59 m
25.43 0 l
o
0.75 setlinewidth
[ 2.25 3.75] 0 setdash
1 setlinecap
np
135.03 370.27 m
0 0.74 l
o
np
135.03 374.30 m
0 -0.73 l
o
0.75 setlinewidth
[] 0 setdash
np
128.67 370.27 m
12.71 0 l
o
np
128.67 374.30 m
12.71 0 l
o
np
122.31 371.01 m
25.43 0 l
0 2.56 l
-25.43 0 l
0 -2.56 l
o
2.25 setlinewidth
[] 0 setdash
0 setlinecap
np
154.10 401.96 m
25.43 0 l
o
0.75 setlinewidth
[ 2.25 3.75] 0 setdash
1 setlinecap
np
166.81 399.90 m
0 1.27 l
o
np
166.81 404.67 m
0 -2.08 l
o
0.75 setlinewidth
[] 0 setdash
np
160.46 399.90 m
12.71 0 l
o
np
160.46 404.67 m
12.71 0 l
o
np
154.10 401.17 m
25.43 0 l
0 1.42 l
-25.43 0 l
0 -1.42 l
o
166.81 405.07 0.98 c p1
166.81 404.84 0.98 c p1
18.00 132.94 577.28 708.94 cl
0 0 0 srgb
0.75 setlinewidth
[] 0 setdash
1 setlinecap
1 setlinejoin
10.00 setmiterlimit
np
71.45 365.34 m
95.36 0 l
o
np
71.45 365.34 m
0 -3.96 l
o
np
103.24 365.34 m
0 -3.96 l
o
np
135.03 365.34 m
0 -3.96 l
o
np
166.81 365.34 m
0 -3.96 l
o
/Font1 findfont 7 s
71.45 351.08 (CA_4) .5 0 t
103.24 351.08 (NSGAII_4) .5 0 t
166.81 351.08 (MOEAD_4) .5 0 t
np
50.47 381.39 m
0 102.87 l
o
np
50.47 381.39 m
-3.96 0 l
o
np
50.47 401.96 m
-3.96 0 l
o
np
50.47 422.53 m
-3.96 0 l
o
np
50.47 443.11 m
-3.96 0 l
o
np
50.47 463.68 m
-3.96 0 l
o
np
50.47 484.26 m
-3.96 0 l
o
40.97 381.39 (0.5) .5 90 t
40.97 401.96 (1.0) .5 90 t
40.97 422.53 (1.5) .5 90 t
40.97 443.11 (2.0) .5 90 t
40.97 463.68 (2.5) .5 90 t
40.97 484.26 (3.0) .5 90 t
np
50.47 365.34 m
137.32 0 l
0 119.13 l
-137.32 0 l
0 -119.13 l
o
18.00 324.94 204.43 516.94 cl
/Font2 findfont 8 s
0 0 0 srgb
119.13 497.84 (EP:DTLZ2B) .5 0 t
236.90 365.34 374.22 484.47 cl
236.90 365.34 374.22 484.47 cl
0 0 0 srgb
2.25 setlinewidth
[] 0 setdash
0 setlinecap
1 setlinejoin
10.00 setmiterlimit
np
245.16 448.82 m
25.43 0 l
o
0.75 setlinewidth
[ 2.25 3.75] 0 setdash
1 setlinecap
np
257.88 425.14 m
0 10.93 l
o
np
257.88 480.06 m
0 -17.48 l
o
0.75 setlinewidth
[] 0 setdash
np
251.52 425.14 m
12.71 0 l
o
np
251.52 480.06 m
12.71 0 l
o
np
245.16 436.07 m
25.43 0 l
0 26.51 l
-25.43 0 l
0 -26.51 l
o
2.25 setlinewidth
[] 0 setdash
0 setlinecap
np
276.95 386.25 m
25.43 0 l
o
0.75 setlinewidth
[ 2.25 3.75] 0 setdash
1 setlinecap
np
289.66 369.75 m
0 9.74 l
o
np
289.66 396.22 m
0 -6.54 l
o
0.75 setlinewidth
[] 0 setdash
np
283.31 369.75 m
12.71 0 l
o
np
283.31 396.22 m
12.71 0 l
o
np
276.95 379.49 m
25.43 0 l
0 10.19 l
-25.43 0 l
0 -10.19 l
o
2.25 setlinewidth
[] 0 setdash
0 setlinecap
np
308.74 420.25 m
25.43 0 l
o
0.75 setlinewidth
[ 2.25 3.75] 0 setdash
1 setlinecap
np
321.45 395.37 m
0 13.81 l
o
np
321.45 464.20 m
0 -31.09 l
o
0.75 setlinewidth
[] 0 setdash
np
315.09 395.37 m
12.72 0 l
o
np
315.09 464.20 m
12.72 0 l
o
np
308.74 409.18 m
25.43 0 l
0 23.93 l
-25.43 0 l
0 -23.93 l
o
321.45 473.77 0.98 c p1
321.45 479.38 0.98 c p1
2.25 setlinewidth
[] 0 setdash
0 setlinecap
np
340.52 442.25 m
25.43 0 l
o
0.75 setlinewidth
[ 2.25 3.75] 0 setdash
1 setlinecap
np
353.24 426.63 m
0 10.35 l
o
np
353.24 455.81 m
0 -9.96 l
o
0.75 setlinewidth
[] 0 setdash
np
346.88 426.63 m
12.72 0 l
o
np
346.88 455.81 m
12.72 0 l
o
np
340.52 436.98 m
25.43 0 l
0 8.87 l
-25.43 0 l
0 -8.87 l
o
18.00 132.94 577.28 708.94 cl
0 0 0 srgb
0.75 setlinewidth
[] 0 setdash
1 setlinecap
1 setlinejoin
10.00 setmiterlimit
np
257.88 365.34 m
95.36 0 l
o
np
257.88 365.34 m
0 -3.96 l
o
np
289.66 365.34 m
0 -3.96 l
o
np
321.45 365.34 m
0 -3.96 l
o
np
353.24 365.34 m
0 -3.96 l
o
/Font1 findfont 7 s
257.88 351.08 (CA_4) .5 0 t
289.66 351.08 (NSGAII_4) .5 0 t
353.24 351.08 (MOEAD_4) .5 0 t
np
236.90 382.85 m
0 97.87 l
o
np
236.90 382.85 m
-3.96 0 l
o
np
236.90 402.42 m
-3.96 0 l
o
np
236.90 421.99 m
-3.96 0 l
o
np
236.90 441.57 m
-3.96 0 l
o
np
236.90 461.14 m
-3.96 0 l
o
np
236.90 480.72 m
-3.96 0 l
o
227.39 382.85 (0.4) .5 90 t
227.39 402.42 (0.5) .5 90 t
227.39 421.99 (0.6) .5 90 t
227.39 441.57 (0.7) .5 90 t
227.39 461.14 (0.8) .5 90 t
227.39 480.72 (0.9) .5 90 t
np
236.90 365.34 m
137.32 0 l
0 119.13 l
-137.32 0 l
0 -119.13 l
o
204.43 324.94 390.85 516.94 cl
/Font2 findfont 8 s
0 0 0 srgb
305.56 497.84 (EP:WFG6) .5 0 t
423.32 365.34 560.64 484.47 cl
423.32 365.34 560.64 484.47 cl
0 0 0 srgb
2.25 setlinewidth
[] 0 setdash
0 setlinecap
1 setlinejoin
10.00 setmiterlimit
np
431.59 439.45 m
25.43 0 l
o
0.75 setlinewidth
[ 2.25 3.75] 0 setdash
1 setlinecap
np
444.30 412.32 m
0 18.27 l
o
np
444.30 458.72 m
0 -13.85 l
o
0.75 setlinewidth
[] 0 setdash
np
437.94 412.32 m
12.72 0 l
o
np
437.94 458.72 m
12.72 0 l
o
np
431.59 430.59 m
25.43 0 l
0 14.28 l
-25.43 0 l
0 -14.28 l
o
2.25 setlinewidth
[] 0 setdash
0 setlinecap
np
463.37 396.87 m
25.43 0 l
o
0.75 setlinewidth
[ 2.25 3.75] 0 setdash
1 setlinecap
np
476.09 385.34 m
0 6.70 l
o
np
476.09 417.75 m
0 -15.17 l
o
0.75 setlinewidth
[] 0 setdash
np
469.73 385.34 m
12.72 0 l
o
np
469.73 417.75 m
12.72 0 l
o
np
463.37 392.04 m
25.43 0 l
0 10.54 l
-25.43 0 l
0 -10.54 l
o
2.25 setlinewidth
[] 0 setdash
0 setlinecap
np
495.16 437.94 m
25.43 0 l
o
0.75 setlinewidth
[ 2.25 3.75] 0 setdash
1 setlinecap
np
507.88 415.67 m
0 13.71 l
o
np
507.88 480.06 m
0 -2.75 l
o
0.75 setlinewidth
[] 0 setdash
np
501.52 415.67 m
12.71 0 l
o
np
501.52 480.06 m
12.71 0 l
o
np
495.16 429.38 m
25.43 0 l
0 47.93 l
-25.43 0 l
0 -47.93 l
o
2.25 setlinewidth
[] 0 setdash
0 setlinecap
np
526.95 412.63 m
25.43 0 l
o
0.75 setlinewidth
[ 2.25 3.75] 0 setdash
1 setlinecap
np
539.66 392.92 m
0 12.41 l
o
np
539.66 426.51 m
0 -7.97 l
o
0.75 setlinewidth
[] 0 setdash
np
533.31 392.92 m
12.71 0 l
o
np
533.31 426.51 m
12.71 0 l
o
np
526.95 405.33 m
25.43 0 l
0 13.21 l
-25.43 0 l
0 -13.21 l
o
539.66 369.75 0.98 c p1
18.00 132.94 577.28 708.94 cl
0 0 0 srgb
0.75 setlinewidth
[] 0 setdash
1 setlinecap
1 setlinejoin
10.00 setmiterlimit
np
444.30 365.34 m
95.36 0 l
o
np
444.30 365.34 m
0 -3.96 l
o
np
476.09 365.34 m
0 -3.96 l
o
np
507.88 365.34 m
0 -3.96 l
o
np
539.66 365.34 m
0 -3.96 l
o
/Font1 findfont 7 s
444.30 351.08 (CA_4) .5 0 t
476.09 351.08 (NSGAII_4) .5 0 t
539.66 351.08 (MOEAD_4) .5 0 t
np
423.32 378.90 m
0 101.16 l
o
np
423.32 378.90 m
-3.96 0 l
o
np
423.32 395.76 m
-3.96 0 l
o
np
423.32 412.62 m
-3.96 0 l
o
np
423.32 429.48 m
-3.96 0 l
o
np
423.32 446.34 m
-3.96 0 l
o
np
423.32 463.20 m
-3.96 0 l
o
np
423.32 480.06 m
-3.96 0 l
o
413.82 378.90 (0.4) .5 90 t
413.82 395.76 (0.5) .5 90 t
413.82 412.62 (0.6) .5 90 t
413.82 429.48 (0.7) .5 90 t
413.82 446.34 (0.8) .5 90 t
413.82 463.20 (0.9) .5 90 t
413.82 480.06 (1.0) .5 90 t
np
423.32 365.34 m
137.32 0 l
0 119.13 l
-137.32 0 l
0 -119.13 l
o
390.85 324.94 577.28 516.94 cl
/Font2 findfont 8 s
0 0 0 srgb
491.98 497.84 (EP:WFG7) .5 0 t
ep
%%Trailer
%%Pages: 1
%%EOF
