%!PS-Adobe-3.0 EPSF-3.0
%%DocumentNeededResources: font Helvetica
%%+ font Helvetica-Bold
%%+ font Helvetica-Oblique
%%+ font Helvetica-BoldOblique
%%+ font Symbol
%%Title: R Graphics Output
%%Creator: R Software
%%Pages: (atend)
%%BoundingBox: 18 133 577 709
%%EndComments
%%BeginProlog
/bp  { gs sRGB gs } def
% begin .ps.prolog
/gs  { gsave } bind def
/gr  { grestore } bind def
/ep  { showpage gr gr } bind def
/m   { moveto } bind def
/l  { rlineto } bind def
/np  { newpath } bind def
/cp  { closepath } bind def
/f   { fill } bind def
/o   { stroke } bind def
/c   { newpath 0 360 arc } bind def
/r   { 4 2 roll moveto 1 copy 3 -1 roll exch 0 exch rlineto 0 rlineto -1 mul 0 exch rlineto closepath } bind def
/p1  { stroke } bind def
/p2  { gsave bg fill grestore newpath } bind def
/p3  { gsave bg fill grestore stroke } bind def
/p6  { gsave bg eofill grestore newpath } bind def
/p7  { gsave bg eofill grestore stroke } bind def
/t   { 5 -2 roll moveto gsave rotate
       1 index stringwidth pop
       mul neg 0 rmoveto show grestore } bind def
/ta  { 4 -2 roll moveto gsave rotate show } bind def
/tb  { 2 -1 roll 0 rmoveto show } bind def
/cl  { grestore gsave newpath 3 index 3 index moveto 1 index
       4 -1 roll lineto  exch 1 index lineto lineto
       closepath clip newpath } bind def
/rgb { setrgbcolor } bind def
/s   { scalefont setfont } bind def
% end   .ps.prolog
/sRGB { [ /CIEBasedABC
          << /DecodeLMN
               [ { dup 0.03928 le
                        {12.92321 div}
                        {0.055 add 1.055 div 2.4 exp }
                     ifelse
                 } bind dup dup
               ]
             /MatrixLMN [0.412457 0.212673 0.019334
                         0.357576 0.715152 0.119192
                         0.180437 0.072175 0.950301]
             /WhitePoint [0.9505 1.0 1.0890]
           >>
         ] setcolorspace } bind def
/srgb { setcolor } bind def
% begin encoding
/WinAnsiEncoding [
 /.notdef /.notdef /.notdef /.notdef /.notdef /.notdef /.notdef /.notdef
 /.notdef /.notdef /.notdef /.notdef /.notdef /.notdef /.notdef /.notdef
 /.notdef /.notdef /.notdef /.notdef /.notdef /.notdef /.notdef /.notdef
 /.notdef /.notdef /.notdef /.notdef /.notdef /.notdef /.notdef /.notdef
 /space /exclam /quotedbl /numbersign /dollar /percent /ampersand /quoteright
 /parenleft /parenright /asterisk /plus /comma /minus /period /slash
 /zero /one /two /three /four /five /six /seven
 /eight /nine /colon /semicolon /less /equal /greater /question
 /at /A /B /C /D /E /F /G
 /H /I /J /K /L /M /N /O
 /P /Q /R /S /T /U /V /W
 /X /Y /Z /bracketleft /backslash /bracketright /asciicircum /underscore
 /grave /a /b /c /d /e /f /g
 /h /i /j /k /l /m /n /o
 /p /q /r /s /t /u /v /w
 /x /y /z /braceleft /bar /braceright /asciitilde /.notdef
 /Euro /.notdef /quotesinglbase /florin /quotedblbase /ellipsis /dagger /daggerdbl
 /circumflex /perthousand /Scaron /guilsinglleft /OE /.notdef /Zcaron /.notdef
 /.notdef /quoteleft /quoteright /quotedblleft /quotedblright /bullet /endash /emdash
 /tilde /trademark /scaron /guilsinglright /oe /.notdef /zcaron /Ydieresis
 /space /exclamdown /cent /sterling /currency /yen /brokenbar /section
 /dieresis /copyright /ordfeminine /guillemotleft /logicalnot /hyphen /registered /macron
 /degree /plusminus /twosuperior /threesuperior /acute /mu /paragraph /periodcentered
 /cedilla /onesuperior /ordmasculine /guillemotright /onequarter /onehalf /threequarters /questiondown
 /Agrave /Aacute /Acircumflex /Atilde /Adieresis /Aring /AE /Ccedilla
 /Egrave /Eacute /Ecircumflex /Edieresis /Igrave /Iacute /Icircumflex /Idieresis
 /Eth /Ntilde /Ograve /Oacute /Ocircumflex /Otilde /Odieresis /multiply
 /Oslash /Ugrave /Uacute /Ucircumflex /Udieresis /Yacute /Thorn /germandbls
 /agrave /aacute /acircumflex /atilde /adieresis /aring /ae /ccedilla
 /egrave /eacute /ecircumflex /edieresis /igrave /iacute /icircumflex /idieresis
 /eth /ntilde /ograve /oacute /ocircumflex /otilde /odieresis /divide
 /oslash /ugrave /uacute /ucircumflex /udieresis /yacute /thorn /ydieresis
]
 def
% end encoding
%%IncludeResource: font Helvetica
/Helvetica findfont
dup length dict begin
  {1 index /FID ne {def} {pop pop} ifelse} forall
  /Encoding WinAnsiEncoding def
  currentdict
  end
/Font1 exch definefont pop
%%IncludeResource: font Helvetica-Bold
/Helvetica-Bold findfont
dup length dict begin
  {1 index /FID ne {def} {pop pop} ifelse} forall
  /Encoding WinAnsiEncoding def
  currentdict
  end
/Font2 exch definefont pop
%%IncludeResource: font Helvetica-Oblique
/Helvetica-Oblique findfont
dup length dict begin
  {1 index /FID ne {def} {pop pop} ifelse} forall
  /Encoding WinAnsiEncoding def
  currentdict
  end
/Font3 exch definefont pop
%%IncludeResource: font Helvetica-BoldOblique
/Helvetica-BoldOblique findfont
dup length dict begin
  {1 index /FID ne {def} {pop pop} ifelse} forall
  /Encoding WinAnsiEncoding def
  currentdict
  end
/Font4 exch definefont pop
%%IncludeResource: font Symbol
/Symbol findfont
dup length dict begin
  {1 index /FID ne {def} {pop pop} ifelse} forall
  currentdict
  end
/Font5 exch definefont pop
%%EndProlog
%%Page: 1 1
bp
50.47 557.34 187.79 676.47 cl
0 0 0 srgb
2.25 setlinewidth
[] 0 setdash
0 setlinecap
1 setlinejoin
10.00 setmiterlimit
np
58.74 572.29 m
25.43 0 l
o
0.75 setlinewidth
[ 2.25 3.75] 0 setdash
1 setlinecap
np
71.45 562.16 m
0 0.50 l
o
np
71.45 620.17 m
0 -31.67 l
o
0.75 setlinewidth
[] 0 setdash
np
65.09 562.16 m
12.72 0 l
o
np
65.09 620.17 m
12.72 0 l
o
np
58.74 562.66 m
25.43 0 l
0 25.84 l
-25.43 0 l
0 -25.84 l
o
71.45 672.06 0.98 c p1
71.45 628.48 0.98 c p1
2.25 setlinewidth
[] 0 setdash
0 setlinecap
np
90.52 565.14 m
25.43 0 l
o
0.75 setlinewidth
[ 2.25 3.75] 0 setdash
1 setlinecap
np
103.24 563.09 m
0 1.06 l
o
np
103.24 569.53 m
0 -2.79 l
o
0.75 setlinewidth
[] 0 setdash
np
96.88 563.09 m
12.72 0 l
o
np
96.88 569.53 m
12.72 0 l
o
np
90.52 564.15 m
25.43 0 l
0 2.59 l
-25.43 0 l
0 -2.59 l
o
103.24 574.02 0.98 c p1
103.24 578.65 0.98 c p1
2.25 setlinewidth
[] 0 setdash
0 setlinecap
np
122.31 561.90 m
25.43 0 l
o
0.75 setlinewidth
[ 2.25 3.75] 0 setdash
1 setlinecap
np
135.03 561.82 m
0 0.05 l
o
np
135.03 561.91 m
0 -0.01 l
o
0.75 setlinewidth
[] 0 setdash
np
128.67 561.82 m
12.71 0 l
o
np
128.67 561.91 m
12.71 0 l
o
np
122.31 561.87 m
25.43 0 l
0 0.03 l
-25.43 0 l
0 -0.03 l
o
135.03 561.81 0.98 c p1
135.03 561.80 0.98 c p1
135.03 561.80 0.98 c p1
135.03 561.81 0.98 c p1
135.03 561.80 0.98 c p1
135.03 561.80 0.98 c p1
2.25 setlinewidth
[] 0 setdash
0 setlinecap
np
154.10 561.75 m
25.43 0 l
o
0.75 setlinewidth
[ 2.25 3.75] 0 setdash
1 setlinecap
np
166.81 561.75 m
0 0 l
o
np
166.81 561.76 m
0 -0.01 l
o
0.75 setlinewidth
[] 0 setdash
np
160.46 561.75 m
12.71 0 l
o
np
160.46 561.76 m
12.71 0 l
o
np
154.10 561.75 m
25.43 0 l
0 0 l
-25.43 0 l
0 0 l
o
18.00 132.94 577.28 708.94 cl
0 0 0 srgb
0.75 setlinewidth
[] 0 setdash
1 setlinecap
1 setlinejoin
10.00 setmiterlimit
np
71.45 557.34 m
95.36 0 l
o
np
71.45 557.34 m
0 -3.96 l
o
np
103.24 557.34 m
0 -3.96 l
o
np
135.03 557.34 m
0 -3.96 l
o
np
166.81 557.34 m
0 -3.96 l
o
/Font1 findfont 7 s
71.45 543.08 (CA_4) .5 0 t
103.24 543.08 (NSGAII_4) .5 0 t
166.81 543.08 (MOEAD_4) .5 0 t
np
50.47 561.74 m
0 102.07 l
o
np
50.47 561.74 m
-3.96 0 l
o
np
50.47 582.15 m
-3.96 0 l
o
np
50.47 602.57 m
-3.96 0 l
o
np
50.47 622.98 m
-3.96 0 l
o
np
50.47 643.40 m
-3.96 0 l
o
np
50.47 663.81 m
-3.96 0 l
o
40.97 561.74 (0) .5 90 t
40.97 582.15 (1) .5 90 t
40.97 602.57 (2) .5 90 t
40.97 622.98 (3) .5 90 t
40.97 643.40 (4) .5 90 t
40.97 663.81 (5) .5 90 t
np
50.47 557.34 m
137.32 0 l
0 119.13 l
-137.32 0 l
0 -119.13 l
o
18.00 516.94 204.43 708.94 cl
/Font2 findfont 8 s
0 0 0 srgb
119.13 689.84 (IGD:DTLZ1) .5 0 t
236.90 557.34 374.22 676.47 cl
236.90 557.34 374.22 676.47 cl
0 0 0 srgb
2.25 setlinewidth
[] 0 setdash
0 setlinecap
1 setlinejoin
10.00 setmiterlimit
np
245.16 619.97 m
25.43 0 l
o
0.75 setlinewidth
[ 2.25 3.75] 0 setdash
1 setlinecap
np
257.88 599.91 m
0 13.52 l
o
np
257.88 637.57 m
0 -10.24 l
o
0.75 setlinewidth
[] 0 setdash
np
251.52 599.91 m
12.71 0 l
o
np
251.52 637.57 m
12.71 0 l
o
np
245.16 613.43 m
25.43 0 l
0 13.90 l
-25.43 0 l
0 -13.90 l
o
257.88 672.06 0.98 c p1
2.25 setlinewidth
[] 0 setdash
0 setlinecap
np
276.95 568.68 m
25.43 0 l
o
0.75 setlinewidth
[ 2.25 3.75] 0 setdash
1 setlinecap
np
289.66 564.09 m
0 2.60 l
o
np
289.66 574.40 m
0 -4.26 l
o
0.75 setlinewidth
[] 0 setdash
np
283.31 564.09 m
12.71 0 l
o
np
283.31 574.40 m
12.71 0 l
o
np
276.95 566.69 m
25.43 0 l
0 3.45 l
-25.43 0 l
0 -3.45 l
o
2.25 setlinewidth
[] 0 setdash
0 setlinecap
np
308.74 573.63 m
25.43 0 l
o
0.75 setlinewidth
[ 2.25 3.75] 0 setdash
1 setlinecap
np
321.45 565.66 m
0 3.78 l
o
np
321.45 579.63 m
0 -3.69 l
o
0.75 setlinewidth
[] 0 setdash
np
315.09 565.66 m
12.72 0 l
o
np
315.09 579.63 m
12.72 0 l
o
np
308.74 569.44 m
25.43 0 l
0 6.50 l
-25.43 0 l
0 -6.50 l
o
2.25 setlinewidth
[] 0 setdash
0 setlinecap
np
340.52 567.82 m
25.43 0 l
o
0.75 setlinewidth
[ 2.25 3.75] 0 setdash
1 setlinecap
np
353.24 561.75 m
0 4.32 l
o
np
353.24 571.50 m
0 -2.52 l
o
0.75 setlinewidth
[] 0 setdash
np
346.88 561.75 m
12.72 0 l
o
np
346.88 571.50 m
12.72 0 l
o
np
340.52 566.07 m
25.43 0 l
0 2.91 l
-25.43 0 l
0 -2.91 l
o
18.00 132.94 577.28 708.94 cl
0 0 0 srgb
0.75 setlinewidth
[] 0 setdash
1 setlinecap
1 setlinejoin
10.00 setmiterlimit
np
257.88 557.34 m
95.36 0 l
o
np
257.88 557.34 m
0 -3.96 l
o
np
289.66 557.34 m
0 -3.96 l
o
np
321.45 557.34 m
0 -3.96 l
o
np
353.24 557.34 m
0 -3.96 l
o
/Font1 findfont 7 s
257.88 543.08 (CA_4) .5 0 t
289.66 543.08 (NSGAII_4) .5 0 t
353.24 543.08 (MOEAD_4) .5 0 t
np
236.90 573.57 m
0 92.03 l
o
np
236.90 573.57 m
-3.96 0 l
o
np
236.90 596.58 m
-3.96 0 l
o
np
236.90 619.59 m
-3.96 0 l
o
np
236.90 642.59 m
-3.96 0 l
o
np
236.90 665.60 m
-3.96 0 l
o
227.39 573.57 (0.005) .5 90 t
227.39 619.59 (0.015) .5 90 t
227.39 665.60 (0.025) .5 90 t
np
236.90 557.34 m
137.32 0 l
0 119.13 l
-137.32 0 l
0 -119.13 l
o
204.43 516.94 390.85 708.94 cl
/Font2 findfont 8 s
0 0 0 srgb
305.56 689.84 (IGD:DTLZ2) .5 0 t
423.32 557.34 560.64 676.47 cl
423.32 557.34 560.64 676.47 cl
0 0 0 srgb
2.25 setlinewidth
[] 0 setdash
0 setlinecap
1 setlinejoin
10.00 setmiterlimit
np
431.59 601.80 m
25.43 0 l
o
0.75 setlinewidth
[ 2.25 3.75] 0 setdash
1 setlinecap
np
444.30 575.88 m
0 16.87 l
o
np
444.30 651.34 m
0 -35.08 l
o
0.75 setlinewidth
[] 0 setdash
np
437.94 575.88 m
12.72 0 l
o
np
437.94 651.34 m
12.72 0 l
o
np
431.59 592.75 m
25.43 0 l
0 23.51 l
-25.43 0 l
0 -23.51 l
o
444.30 672.06 0.98 c p1
444.30 671.22 0.98 c p1
444.30 664.18 0.98 c p1
2.25 setlinewidth
[] 0 setdash
0 setlinecap
np
463.37 608.99 m
25.43 0 l
o
0.75 setlinewidth
[ 2.25 3.75] 0 setdash
1 setlinecap
np
476.09 586.48 m
0 14.35 l
o
np
476.09 622.23 m
0 -7.85 l
o
0.75 setlinewidth
[] 0 setdash
np
469.73 586.48 m
12.72 0 l
o
np
469.73 622.23 m
12.72 0 l
o
np
463.37 600.83 m
25.43 0 l
0 13.55 l
-25.43 0 l
0 -13.55 l
o
2.25 setlinewidth
[] 0 setdash
0 setlinecap
np
495.16 566.28 m
25.43 0 l
o
0.75 setlinewidth
[ 2.25 3.75] 0 setdash
1 setlinecap
np
507.88 565.95 m
0 0.22 l
o
np
507.88 566.33 m
0 0 l
o
0.75 setlinewidth
[] 0 setdash
np
501.52 565.95 m
12.71 0 l
o
np
501.52 566.33 m
12.71 0 l
o
np
495.16 566.17 m
25.43 0 l
0 0.16 l
-25.43 0 l
0 -0.16 l
o
507.88 563.66 0.98 c p1
507.88 565.82 0.98 c p1
507.88 565.89 0.98 c p1
507.88 565.42 0.98 c p1
2.25 setlinewidth
[] 0 setdash
0 setlinecap
np
526.95 572.19 m
25.43 0 l
o
0.75 setlinewidth
[ 2.25 3.75] 0 setdash
1 setlinecap
np
539.66 561.75 m
0 5.48 l
o
np
539.66 583.06 m
0 -7.96 l
o
0.75 setlinewidth
[] 0 setdash
np
533.31 561.75 m
12.71 0 l
o
np
533.31 583.06 m
12.71 0 l
o
np
526.95 567.23 m
25.43 0 l
0 7.87 l
-25.43 0 l
0 -7.87 l
o
18.00 132.94 577.28 708.94 cl
0 0 0 srgb
0.75 setlinewidth
[] 0 setdash
1 setlinecap
1 setlinejoin
10.00 setmiterlimit
np
444.30 557.34 m
95.36 0 l
o
np
444.30 557.34 m
0 -3.96 l
o
np
476.09 557.34 m
0 -3.96 l
o
np
507.88 557.34 m
0 -3.96 l
o
np
539.66 557.34 m
0 -3.96 l
o
/Font1 findfont 7 s
444.30 543.08 (CA_4) .5 0 t
476.09 543.08 (NSGAII_4) .5 0 t
539.66 543.08 (MOEAD_4) .5 0 t
np
423.32 576.90 m
0 77.95 l
o
np
423.32 576.90 m
-3.96 0 l
o
np
423.32 602.89 m
-3.96 0 l
o
np
423.32 628.87 m
-3.96 0 l
o
np
423.32 654.85 m
-3.96 0 l
o
413.82 576.90 (0.05) .5 90 t
413.82 602.89 (0.10) .5 90 t
413.82 628.87 (0.15) .5 90 t
413.82 654.85 (0.20) .5 90 t
np
423.32 557.34 m
137.32 0 l
0 119.13 l
-137.32 0 l
0 -119.13 l
o
390.85 516.94 577.28 708.94 cl
/Font2 findfont 8 s
0 0 0 srgb
491.98 689.84 (IGD:DTLZ3) .5 0 t
50.47 365.34 187.79 484.47 cl
50.47 365.34 187.79 484.47 cl
0 0 0 srgb
2.25 setlinewidth
[] 0 setdash
0 setlinecap
1 setlinejoin
10.00 setmiterlimit
np
58.74 389.32 m
25.43 0 l
o
0.75 setlinewidth
[ 2.25 3.75] 0 setdash
1 setlinecap
np
71.45 386.09 m
0 1.82 l
o
np
71.45 393.46 m
0 -3.28 l
o
0.75 setlinewidth
[] 0 setdash
np
65.09 386.09 m
12.72 0 l
o
np
65.09 393.46 m
12.72 0 l
o
np
58.74 387.91 m
25.43 0 l
0 2.27 l
-25.43 0 l
0 -2.27 l
o
71.45 480.06 0.98 c p1
71.45 403.27 0.98 c p1
71.45 382.45 0.98 c p1
2.25 setlinewidth
[] 0 setdash
0 setlinecap
np
90.52 371.14 m
25.43 0 l
o
0.75 setlinewidth
[ 2.25 3.75] 0 setdash
1 setlinecap
np
103.24 369.75 m
0 0.91 l
o
np
103.24 371.94 m
0 -0.51 l
o
0.75 setlinewidth
[] 0 setdash
np
96.88 369.75 m
12.72 0 l
o
np
96.88 371.94 m
12.72 0 l
o
np
90.52 370.66 m
25.43 0 l
0 0.77 l
-25.43 0 l
0 -0.77 l
o
2.25 setlinewidth
[] 0 setdash
0 setlinecap
np
122.31 372.88 m
25.43 0 l
o
0.75 setlinewidth
[ 2.25 3.75] 0 setdash
1 setlinecap
np
135.03 370.38 m
0 0.94 l
o
np
135.03 375.71 m
0 -1.28 l
o
0.75 setlinewidth
[] 0 setdash
np
128.67 370.38 m
12.71 0 l
o
np
128.67 375.71 m
12.71 0 l
o
np
122.31 371.32 m
25.43 0 l
0 3.11 l
-25.43 0 l
0 -3.11 l
o
2.25 setlinewidth
[] 0 setdash
0 setlinecap
np
154.10 404.85 m
25.43 0 l
o
0.75 setlinewidth
[ 2.25 3.75] 0 setdash
1 setlinecap
np
166.81 403.07 m
0 1.14 l
o
np
166.81 407.32 m
0 -1.84 l
o
0.75 setlinewidth
[] 0 setdash
np
160.46 403.07 m
12.71 0 l
o
np
160.46 407.32 m
12.71 0 l
o
np
154.10 404.21 m
25.43 0 l
0 1.27 l
-25.43 0 l
0 -1.27 l
o
166.81 407.47 0.98 c p1
166.81 407.53 0.98 c p1
18.00 132.94 577.28 708.94 cl
0 0 0 srgb
0.75 setlinewidth
[] 0 setdash
1 setlinecap
1 setlinejoin
10.00 setmiterlimit
np
71.45 365.34 m
95.36 0 l
o
np
71.45 365.34 m
0 -3.96 l
o
np
103.24 365.34 m
0 -3.96 l
o
np
135.03 365.34 m
0 -3.96 l
o
np
166.81 365.34 m
0 -3.96 l
o
/Font1 findfont 7 s
71.45 351.08 (CA_4) .5 0 t
103.24 351.08 (NSGAII_4) .5 0 t
166.81 351.08 (MOEAD_4) .5 0 t
np
50.47 383.82 m
0 98.86 l
o
np
50.47 383.82 m
-3.96 0 l
o
np
50.47 403.59 m
-3.96 0 l
o
np
50.47 423.36 m
-3.96 0 l
o
np
50.47 443.14 m
-3.96 0 l
o
np
50.47 462.91 m
-3.96 0 l
o
np
50.47 482.68 m
-3.96 0 l
o
40.97 383.82 (0.01) .5 90 t
40.97 403.59 (0.02) .5 90 t
40.97 423.36 (0.03) .5 90 t
40.97 443.14 (0.04) .5 90 t
40.97 462.91 (0.05) .5 90 t
40.97 482.68 (0.06) .5 90 t
np
50.47 365.34 m
137.32 0 l
0 119.13 l
-137.32 0 l
0 -119.13 l
o
18.00 324.94 204.43 516.94 cl
/Font2 findfont 8 s
0 0 0 srgb
119.13 497.84 (IGD:DTLZ2B) .5 0 t
236.90 365.34 374.22 484.47 cl
236.90 365.34 374.22 484.47 cl
0 0 0 srgb
2.25 setlinewidth
[] 0 setdash
0 setlinecap
1 setlinejoin
10.00 setmiterlimit
np
245.16 428.97 m
25.43 0 l
o
0.75 setlinewidth
[ 2.25 3.75] 0 setdash
1 setlinecap
np
257.88 404.82 m
0 11.39 l
o
np
257.88 459.15 m
0 -22.60 l
o
0.75 setlinewidth
[] 0 setdash
np
251.52 404.82 m
12.71 0 l
o
np
251.52 459.15 m
12.71 0 l
o
np
245.16 416.21 m
25.43 0 l
0 20.34 l
-25.43 0 l
0 -20.34 l
o
2.25 setlinewidth
[] 0 setdash
0 setlinecap
np
276.95 374.82 m
25.43 0 l
o
0.75 setlinewidth
[ 2.25 3.75] 0 setdash
1 setlinecap
np
289.66 369.75 m
0 3.30 l
o
np
289.66 380.74 m
0 -3.84 l
o
0.75 setlinewidth
[] 0 setdash
np
283.31 369.75 m
12.71 0 l
o
np
283.31 380.74 m
12.71 0 l
o
np
276.95 373.05 m
25.43 0 l
0 3.85 l
-25.43 0 l
0 -3.85 l
o
2.25 setlinewidth
[] 0 setdash
0 setlinecap
np
308.74 401.25 m
25.43 0 l
o
0.75 setlinewidth
[ 2.25 3.75] 0 setdash
1 setlinecap
np
321.45 380.07 m
0 11.74 l
o
np
321.45 438.76 m
0 -27.82 l
o
0.75 setlinewidth
[] 0 setdash
np
315.09 380.07 m
12.72 0 l
o
np
315.09 438.76 m
12.72 0 l
o
np
308.74 391.81 m
25.43 0 l
0 19.13 l
-25.43 0 l
0 -19.13 l
o
321.45 445.50 0.98 c p1
321.45 442.26 0.98 c p1
321.45 451.17 0.98 c p1
2.25 setlinewidth
[] 0 setdash
0 setlinecap
np
340.52 463.37 m
25.43 0 l
o
0.75 setlinewidth
[ 2.25 3.75] 0 setdash
1 setlinecap
np
353.24 439.15 m
0 15.28 l
o
np
353.24 480.06 m
0 -8.81 l
o
0.75 setlinewidth
[] 0 setdash
np
346.88 439.15 m
12.72 0 l
o
np
346.88 480.06 m
12.72 0 l
o
np
340.52 454.43 m
25.43 0 l
0 16.82 l
-25.43 0 l
0 -16.82 l
o
18.00 132.94 577.28 708.94 cl
0 0 0 srgb
0.75 setlinewidth
[] 0 setdash
1 setlinecap
1 setlinejoin
10.00 setmiterlimit
np
257.88 365.34 m
95.36 0 l
o
np
257.88 365.34 m
0 -3.96 l
o
np
289.66 365.34 m
0 -3.96 l
o
np
321.45 365.34 m
0 -3.96 l
o
np
353.24 365.34 m
0 -3.96 l
o
/Font1 findfont 7 s
257.88 351.08 (CA_4) .5 0 t
289.66 351.08 (NSGAII_4) .5 0 t
353.24 351.08 (MOEAD_4) .5 0 t
np
236.90 379.05 m
0 98.87 l
o
np
236.90 379.05 m
-3.96 0 l
o
np
236.90 395.53 m
-3.96 0 l
o
np
236.90 412.01 m
-3.96 0 l
o
np
236.90 428.48 m
-3.96 0 l
o
np
236.90 444.96 m
-3.96 0 l
o
np
236.90 461.44 m
-3.96 0 l
o
np
236.90 477.92 m
-3.96 0 l
o
227.39 379.05 (0.006) .5 90 t
227.39 412.01 (0.010) .5 90 t
227.39 444.96 (0.014) .5 90 t
227.39 477.92 (0.018) .5 90 t
np
236.90 365.34 m
137.32 0 l
0 119.13 l
-137.32 0 l
0 -119.13 l
o
204.43 324.94 390.85 516.94 cl
/Font2 findfont 8 s
0 0 0 srgb
305.56 497.84 (IGD:WFG6) .5 0 t
423.32 365.34 560.64 484.47 cl
423.32 365.34 560.64 484.47 cl
0 0 0 srgb
2.25 setlinewidth
[] 0 setdash
0 setlinecap
1 setlinejoin
10.00 setmiterlimit
np
431.59 410.75 m
25.43 0 l
o
0.75 setlinewidth
[ 2.25 3.75] 0 setdash
1 setlinecap
np
444.30 389.95 m
0 11.27 l
o
np
444.30 435.08 m
0 -20.22 l
o
0.75 setlinewidth
[] 0 setdash
np
437.94 389.95 m
12.72 0 l
o
np
437.94 435.08 m
12.72 0 l
o
np
431.59 401.22 m
25.43 0 l
0 13.64 l
-25.43 0 l
0 -13.64 l
o
444.30 437.38 0.98 c p1
2.25 setlinewidth
[] 0 setdash
0 setlinecap
np
463.37 373.27 m
25.43 0 l
o
0.75 setlinewidth
[ 2.25 3.75] 0 setdash
1 setlinecap
np
476.09 369.75 m
0 2.48 l
o
np
476.09 376.13 m
0 -2.02 l
o
0.75 setlinewidth
[] 0 setdash
np
469.73 369.75 m
12.72 0 l
o
np
469.73 376.13 m
12.72 0 l
o
np
463.37 372.23 m
25.43 0 l
0 1.88 l
-25.43 0 l
0 -1.88 l
o
476.09 377.41 0.98 c p1
476.09 378.79 0.98 c p1
476.09 377.24 0.98 c p1
2.25 setlinewidth
[] 0 setdash
0 setlinecap
np
495.16 430.26 m
25.43 0 l
o
0.75 setlinewidth
[ 2.25 3.75] 0 setdash
1 setlinecap
np
507.88 393.57 m
0 19.60 l
o
np
507.88 480.06 m
0 -31.75 l
o
0.75 setlinewidth
[] 0 setdash
np
501.52 393.57 m
12.71 0 l
o
np
501.52 480.06 m
12.71 0 l
o
np
495.16 413.17 m
25.43 0 l
0 35.14 l
-25.43 0 l
0 -35.14 l
o
2.25 setlinewidth
[] 0 setdash
0 setlinecap
np
526.95 402.56 m
25.43 0 l
o
0.75 setlinewidth
[ 2.25 3.75] 0 setdash
1 setlinecap
np
539.66 383.77 m
0 11.17 l
o
np
539.66 416.69 m
0 -10.12 l
o
0.75 setlinewidth
[] 0 setdash
np
533.31 383.77 m
12.71 0 l
o
np
533.31 416.69 m
12.71 0 l
o
np
526.95 394.94 m
25.43 0 l
0 11.63 l
-25.43 0 l
0 -11.63 l
o
18.00 132.94 577.28 708.94 cl
0 0 0 srgb
0.75 setlinewidth
[] 0 setdash
1 setlinecap
1 setlinejoin
10.00 setmiterlimit
np
444.30 365.34 m
95.36 0 l
o
np
444.30 365.34 m
0 -3.96 l
o
np
476.09 365.34 m
0 -3.96 l
o
np
507.88 365.34 m
0 -3.96 l
o
np
539.66 365.34 m
0 -3.96 l
o
/Font1 findfont 7 s
444.30 351.08 (CA_4) .5 0 t
476.09 351.08 (NSGAII_4) .5 0 t
539.66 351.08 (MOEAD_4) .5 0 t
np
423.32 372.15 m
0 100.79 l
o
np
423.32 372.15 m
-3.96 0 l
o
np
423.32 405.75 m
-3.96 0 l
o
np
423.32 439.34 m
-3.96 0 l
o
np
423.32 472.94 m
-3.96 0 l
o
413.82 372.15 (0.005) .5 90 t
413.82 405.75 (0.010) .5 90 t
413.82 439.34 (0.015) .5 90 t
413.82 472.94 (0.020) .5 90 t
np
423.32 365.34 m
137.32 0 l
0 119.13 l
-137.32 0 l
0 -119.13 l
o
390.85 324.94 577.28 516.94 cl
/Font2 findfont 8 s
0 0 0 srgb
491.98 497.84 (IGD:WFG7) .5 0 t
ep
%%Trailer
%%Pages: 1
%%EOF
