%!PS-Adobe-3.0 EPSF-3.0
%%DocumentNeededResources: font Helvetica
%%+ font Helvetica-Bold
%%+ font Helvetica-Oblique
%%+ font Helvetica-BoldOblique
%%+ font Symbol
%%Title: R Graphics Output
%%Creator: R Software
%%Pages: (atend)
%%BoundingBox: 18 133 577 709
%%EndComments
%%BeginProlog
/bp  { gs sRGB gs } def
% begin .ps.prolog
/gs  { gsave } bind def
/gr  { grestore } bind def
/ep  { showpage gr gr } bind def
/m   { moveto } bind def
/l  { rlineto } bind def
/np  { newpath } bind def
/cp  { closepath } bind def
/f   { fill } bind def
/o   { stroke } bind def
/c   { newpath 0 360 arc } bind def
/r   { 4 2 roll moveto 1 copy 3 -1 roll exch 0 exch rlineto 0 rlineto -1 mul 0 exch rlineto closepath } bind def
/p1  { stroke } bind def
/p2  { gsave bg fill grestore newpath } bind def
/p3  { gsave bg fill grestore stroke } bind def
/p6  { gsave bg eofill grestore newpath } bind def
/p7  { gsave bg eofill grestore stroke } bind def
/t   { 5 -2 roll moveto gsave rotate
       1 index stringwidth pop
       mul neg 0 rmoveto show grestore } bind def
/ta  { 4 -2 roll moveto gsave rotate show } bind def
/tb  { 2 -1 roll 0 rmoveto show } bind def
/cl  { grestore gsave newpath 3 index 3 index moveto 1 index
       4 -1 roll lineto  exch 1 index lineto lineto
       closepath clip newpath } bind def
/rgb { setrgbcolor } bind def
/s   { scalefont setfont } bind def
% end   .ps.prolog
/sRGB { [ /CIEBasedABC
          << /DecodeLMN
               [ { dup 0.03928 le
                        {12.92321 div}
                        {0.055 add 1.055 div 2.4 exp }
                     ifelse
                 } bind dup dup
               ]
             /MatrixLMN [0.412457 0.212673 0.019334
                         0.357576 0.715152 0.119192
                         0.180437 0.072175 0.950301]
             /WhitePoint [0.9505 1.0 1.0890]
           >>
         ] setcolorspace } bind def
/srgb { setcolor } bind def
% begin encoding
/WinAnsiEncoding [
 /.notdef /.notdef /.notdef /.notdef /.notdef /.notdef /.notdef /.notdef
 /.notdef /.notdef /.notdef /.notdef /.notdef /.notdef /.notdef /.notdef
 /.notdef /.notdef /.notdef /.notdef /.notdef /.notdef /.notdef /.notdef
 /.notdef /.notdef /.notdef /.notdef /.notdef /.notdef /.notdef /.notdef
 /space /exclam /quotedbl /numbersign /dollar /percent /ampersand /quoteright
 /parenleft /parenright /asterisk /plus /comma /minus /period /slash
 /zero /one /two /three /four /five /six /seven
 /eight /nine /colon /semicolon /less /equal /greater /question
 /at /A /B /C /D /E /F /G
 /H /I /J /K /L /M /N /O
 /P /Q /R /S /T /U /V /W
 /X /Y /Z /bracketleft /backslash /bracketright /asciicircum /underscore
 /grave /a /b /c /d /e /f /g
 /h /i /j /k /l /m /n /o
 /p /q /r /s /t /u /v /w
 /x /y /z /braceleft /bar /braceright /asciitilde /.notdef
 /Euro /.notdef /quotesinglbase /florin /quotedblbase /ellipsis /dagger /daggerdbl
 /circumflex /perthousand /Scaron /guilsinglleft /OE /.notdef /Zcaron /.notdef
 /.notdef /quoteleft /quoteright /quotedblleft /quotedblright /bullet /endash /emdash
 /tilde /trademark /scaron /guilsinglright /oe /.notdef /zcaron /Ydieresis
 /space /exclamdown /cent /sterling /currency /yen /brokenbar /section
 /dieresis /copyright /ordfeminine /guillemotleft /logicalnot /hyphen /registered /macron
 /degree /plusminus /twosuperior /threesuperior /acute /mu /paragraph /periodcentered
 /cedilla /onesuperior /ordmasculine /guillemotright /onequarter /onehalf /threequarters /questiondown
 /Agrave /Aacute /Acircumflex /Atilde /Adieresis /Aring /AE /Ccedilla
 /Egrave /Eacute /Ecircumflex /Edieresis /Igrave /Iacute /Icircumflex /Idieresis
 /Eth /Ntilde /Ograve /Oacute /Ocircumflex /Otilde /Odieresis /multiply
 /Oslash /Ugrave /Uacute /Ucircumflex /Udieresis /Yacute /Thorn /germandbls
 /agrave /aacute /acircumflex /atilde /adieresis /aring /ae /ccedilla
 /egrave /eacute /ecircumflex /edieresis /igrave /iacute /icircumflex /idieresis
 /eth /ntilde /ograve /oacute /ocircumflex /otilde /odieresis /divide
 /oslash /ugrave /uacute /ucircumflex /udieresis /yacute /thorn /ydieresis
]
 def
% end encoding
%%IncludeResource: font Helvetica
/Helvetica findfont
dup length dict begin
  {1 index /FID ne {def} {pop pop} ifelse} forall
  /Encoding WinAnsiEncoding def
  currentdict
  end
/Font1 exch definefont pop
%%IncludeResource: font Helvetica-Bold
/Helvetica-Bold findfont
dup length dict begin
  {1 index /FID ne {def} {pop pop} ifelse} forall
  /Encoding WinAnsiEncoding def
  currentdict
  end
/Font2 exch definefont pop
%%IncludeResource: font Helvetica-Oblique
/Helvetica-Oblique findfont
dup length dict begin
  {1 index /FID ne {def} {pop pop} ifelse} forall
  /Encoding WinAnsiEncoding def
  currentdict
  end
/Font3 exch definefont pop
%%IncludeResource: font Helvetica-BoldOblique
/Helvetica-BoldOblique findfont
dup length dict begin
  {1 index /FID ne {def} {pop pop} ifelse} forall
  /Encoding WinAnsiEncoding def
  currentdict
  end
/Font4 exch definefont pop
%%IncludeResource: font Symbol
/Symbol findfont
dup length dict begin
  {1 index /FID ne {def} {pop pop} ifelse} forall
  currentdict
  end
/Font5 exch definefont pop
%%EndProlog
%%Page: 1 1
bp
50.47 557.34 187.79 676.47 cl
0 0 0 srgb
2.25 setlinewidth
[] 0 setdash
0 setlinecap
1 setlinejoin
10.00 setmiterlimit
np
58.74 636.79 m
25.43 0 l
o
0.75 setlinewidth
[ 2.25 3.75] 0 setdash
1 setlinecap
np
71.45 561.75 m
0 49.09 l
o
np
71.45 671.45 m
0 -24.65 l
o
0.75 setlinewidth
[] 0 setdash
np
65.09 561.75 m
12.72 0 l
o
np
65.09 671.45 m
12.72 0 l
o
np
58.74 610.84 m
25.43 0 l
0 35.96 l
-25.43 0 l
0 -35.96 l
o
2.25 setlinewidth
[] 0 setdash
0 setlinecap
np
90.52 601.34 m
25.43 0 l
o
0.75 setlinewidth
[ 2.25 3.75] 0 setdash
1 setlinecap
np
103.24 584.97 m
0 8.06 l
o
np
103.24 622.00 m
0 -10.58 l
o
0.75 setlinewidth
[] 0 setdash
np
96.88 584.97 m
12.72 0 l
o
np
96.88 622.00 m
12.72 0 l
o
np
90.52 593.03 m
25.43 0 l
0 18.39 l
-25.43 0 l
0 -18.39 l
o
2.25 setlinewidth
[] 0 setdash
0 setlinecap
np
122.31 650.56 m
25.43 0 l
o
0.75 setlinewidth
[ 2.25 3.75] 0 setdash
1 setlinecap
np
135.03 632.37 m
0 12.53 l
o
np
135.03 672.06 m
0 -14.58 l
o
0.75 setlinewidth
[] 0 setdash
np
128.67 632.37 m
12.71 0 l
o
np
128.67 672.06 m
12.71 0 l
o
np
122.31 644.90 m
25.43 0 l
0 12.58 l
-25.43 0 l
0 -12.58 l
o
2.25 setlinewidth
[] 0 setdash
0 setlinecap
np
154.10 608.74 m
25.43 0 l
o
0.75 setlinewidth
[ 2.25 3.75] 0 setdash
1 setlinecap
np
166.81 601.86 m
0 4.05 l
o
np
166.81 617.61 m
0 -6.78 l
o
0.75 setlinewidth
[] 0 setdash
np
160.46 601.86 m
12.71 0 l
o
np
160.46 617.61 m
12.71 0 l
o
np
154.10 605.91 m
25.43 0 l
0 4.92 l
-25.43 0 l
0 -4.92 l
o
18.00 132.94 577.28 708.94 cl
0 0 0 srgb
0.75 setlinewidth
[] 0 setdash
1 setlinecap
1 setlinejoin
10.00 setmiterlimit
np
71.45 557.34 m
95.36 0 l
o
np
71.45 557.34 m
0 -3.96 l
o
np
103.24 557.34 m
0 -3.96 l
o
np
135.03 557.34 m
0 -3.96 l
o
np
166.81 557.34 m
0 -3.96 l
o
/Font1 findfont 7 s
71.45 543.08 (CA_4) .5 0 t
103.24 543.08 (NSGAII_4) .5 0 t
166.81 543.08 (MOEAD_4) .5 0 t
np
50.47 566.82 m
0 93.09 l
o
np
50.47 566.82 m
-3.96 0 l
o
np
50.47 590.09 m
-3.96 0 l
o
np
50.47 613.36 m
-3.96 0 l
o
np
50.47 636.63 m
-3.96 0 l
o
np
50.47 659.91 m
-3.96 0 l
o
40.97 566.82 (0.4) .5 90 t
40.97 590.09 (0.6) .5 90 t
40.97 613.36 (0.8) .5 90 t
40.97 636.63 (1.0) .5 90 t
40.97 659.91 (1.2) .5 90 t
np
50.47 557.34 m
137.32 0 l
0 119.13 l
-137.32 0 l
0 -119.13 l
o
18.00 516.94 204.43 708.94 cl
/Font2 findfont 8 s
0 0 0 srgb
119.13 689.84 (SPREAD:DTLZ1) .5 0 t
236.90 557.34 374.22 676.47 cl
236.90 557.34 374.22 676.47 cl
0 0 0 srgb
2.25 setlinewidth
[] 0 setdash
0 setlinecap
1 setlinejoin
10.00 setmiterlimit
np
245.16 640.06 m
25.43 0 l
o
0.75 setlinewidth
[ 2.25 3.75] 0 setdash
1 setlinecap
np
257.88 596.91 m
0 29.58 l
o
np
257.88 672.06 m
0 -18.33 l
o
0.75 setlinewidth
[] 0 setdash
np
251.52 596.91 m
12.71 0 l
o
np
251.52 672.06 m
12.71 0 l
o
np
245.16 626.49 m
25.43 0 l
0 27.24 l
-25.43 0 l
0 -27.24 l
o
2.25 setlinewidth
[] 0 setdash
0 setlinecap
np
276.95 570.44 m
25.43 0 l
o
0.75 setlinewidth
[ 2.25 3.75] 0 setdash
1 setlinecap
np
289.66 561.75 m
0 4.11 l
o
np
289.66 584.33 m
0 -8.30 l
o
0.75 setlinewidth
[] 0 setdash
np
283.31 561.75 m
12.71 0 l
o
np
283.31 584.33 m
12.71 0 l
o
np
276.95 565.86 m
25.43 0 l
0 10.17 l
-25.43 0 l
0 -10.17 l
o
2.25 setlinewidth
[] 0 setdash
0 setlinecap
np
308.74 635.58 m
25.43 0 l
o
0.75 setlinewidth
[ 2.25 3.75] 0 setdash
1 setlinecap
np
321.45 619.93 m
0 7.46 l
o
np
321.45 665.63 m
0 -17.87 l
o
0.75 setlinewidth
[] 0 setdash
np
315.09 619.93 m
12.72 0 l
o
np
315.09 665.63 m
12.72 0 l
o
np
308.74 627.39 m
25.43 0 l
0 20.37 l
-25.43 0 l
0 -20.37 l
o
321.45 590.43 0.98 c p1
2.25 setlinewidth
[] 0 setdash
0 setlinecap
np
340.52 601.69 m
25.43 0 l
o
0.75 setlinewidth
[ 2.25 3.75] 0 setdash
1 setlinecap
np
353.24 582.12 m
0 13.46 l
o
np
353.24 614.80 m
0 -8.42 l
o
0.75 setlinewidth
[] 0 setdash
np
346.88 582.12 m
12.72 0 l
o
np
346.88 614.80 m
12.72 0 l
o
np
340.52 595.58 m
25.43 0 l
0 10.80 l
-25.43 0 l
0 -10.80 l
o
18.00 132.94 577.28 708.94 cl
0 0 0 srgb
0.75 setlinewidth
[] 0 setdash
1 setlinecap
1 setlinejoin
10.00 setmiterlimit
np
257.88 557.34 m
95.36 0 l
o
np
257.88 557.34 m
0 -3.96 l
o
np
289.66 557.34 m
0 -3.96 l
o
np
321.45 557.34 m
0 -3.96 l
o
np
353.24 557.34 m
0 -3.96 l
o
/Font1 findfont 7 s
257.88 543.08 (CA_4) .5 0 t
289.66 543.08 (NSGAII_4) .5 0 t
353.24 543.08 (MOEAD_4) .5 0 t
np
236.90 578.40 m
0 80.51 l
o
np
236.90 578.40 m
-3.96 0 l
o
np
236.90 605.24 m
-3.96 0 l
o
np
236.90 632.07 m
-3.96 0 l
o
np
236.90 658.91 m
-3.96 0 l
o
227.39 578.40 (0.6) .5 90 t
227.39 605.24 (0.8) .5 90 t
227.39 632.07 (1.0) .5 90 t
227.39 658.91 (1.2) .5 90 t
np
236.90 557.34 m
137.32 0 l
0 119.13 l
-137.32 0 l
0 -119.13 l
o
204.43 516.94 390.85 708.94 cl
/Font2 findfont 8 s
0 0 0 srgb
305.56 689.84 (SPREAD:DTLZ2) .5 0 t
423.32 557.34 560.64 676.47 cl
423.32 557.34 560.64 676.47 cl
0 0 0 srgb
2.25 setlinewidth
[] 0 setdash
0 setlinecap
1 setlinejoin
10.00 setmiterlimit
np
431.59 622.40 m
25.43 0 l
o
0.75 setlinewidth
[ 2.25 3.75] 0 setdash
1 setlinecap
np
444.30 597.62 m
0 11.74 l
o
np
444.30 653.23 m
0 -22.07 l
o
0.75 setlinewidth
[] 0 setdash
np
437.94 597.62 m
12.72 0 l
o
np
437.94 653.23 m
12.72 0 l
o
np
431.59 609.36 m
25.43 0 l
0 21.80 l
-25.43 0 l
0 -21.80 l
o
444.30 672.06 0.98 c p1
444.30 567.53 0.98 c p1
2.25 setlinewidth
[] 0 setdash
0 setlinecap
np
463.37 576.86 m
25.43 0 l
o
0.75 setlinewidth
[ 2.25 3.75] 0 setdash
1 setlinecap
np
476.09 571.12 m
0 2.23 l
o
np
476.09 587.46 m
0 -8.36 l
o
0.75 setlinewidth
[] 0 setdash
np
469.73 571.12 m
12.72 0 l
o
np
469.73 587.46 m
12.72 0 l
o
np
463.37 573.35 m
25.43 0 l
0 5.75 l
-25.43 0 l
0 -5.75 l
o
476.09 561.75 0.98 c p1
2.25 setlinewidth
[] 0 setdash
0 setlinecap
np
495.16 618.44 m
25.43 0 l
o
0.75 setlinewidth
[ 2.25 3.75] 0 setdash
1 setlinecap
np
507.88 618.08 m
0 0.06 l
o
np
507.88 620.15 m
0 -1.11 l
o
0.75 setlinewidth
[] 0 setdash
np
501.52 618.08 m
12.71 0 l
o
np
501.52 620.15 m
12.71 0 l
o
np
495.16 618.14 m
25.43 0 l
0 0.90 l
-25.43 0 l
0 -0.90 l
o
507.88 644.42 0.98 c p1
507.88 620.78 0.98 c p1
507.88 622.33 0.98 c p1
507.88 626.04 0.98 c p1
2.25 setlinewidth
[] 0 setdash
0 setlinecap
np
526.95 604.67 m
25.43 0 l
o
0.75 setlinewidth
[ 2.25 3.75] 0 setdash
1 setlinecap
np
539.66 586.93 m
0 10.41 l
o
np
539.66 620.70 m
0 -9.41 l
o
0.75 setlinewidth
[] 0 setdash
np
533.31 586.93 m
12.71 0 l
o
np
533.31 620.70 m
12.71 0 l
o
np
526.95 597.34 m
25.43 0 l
0 13.95 l
-25.43 0 l
0 -13.95 l
o
539.66 568.59 0.98 c p1
539.66 638.85 0.98 c p1
18.00 132.94 577.28 708.94 cl
0 0 0 srgb
0.75 setlinewidth
[] 0 setdash
1 setlinecap
1 setlinejoin
10.00 setmiterlimit
np
444.30 557.34 m
95.36 0 l
o
np
444.30 557.34 m
0 -3.96 l
o
np
476.09 557.34 m
0 -3.96 l
o
np
507.88 557.34 m
0 -3.96 l
o
np
539.66 557.34 m
0 -3.96 l
o
/Font1 findfont 7 s
444.30 543.08 (CA_4) .5 0 t
476.09 543.08 (NSGAII_4) .5 0 t
539.66 543.08 (MOEAD_4) .5 0 t
np
423.32 561.94 m
0 112.16 l
o
np
423.32 561.94 m
-3.96 0 l
o
np
423.32 580.63 m
-3.96 0 l
o
np
423.32 599.32 m
-3.96 0 l
o
np
423.32 618.02 m
-3.96 0 l
o
np
423.32 636.71 m
-3.96 0 l
o
np
423.32 655.41 m
-3.96 0 l
o
np
423.32 674.10 m
-3.96 0 l
o
413.82 561.94 (0.4) .5 90 t
413.82 580.63 (0.6) .5 90 t
413.82 599.32 (0.8) .5 90 t
413.82 618.02 (1.0) .5 90 t
413.82 636.71 (1.2) .5 90 t
413.82 655.41 (1.4) .5 90 t
413.82 674.10 (1.6) .5 90 t
np
423.32 557.34 m
137.32 0 l
0 119.13 l
-137.32 0 l
0 -119.13 l
o
390.85 516.94 577.28 708.94 cl
/Font2 findfont 8 s
0 0 0 srgb
491.98 689.84 (SPREAD:DTLZ3) .5 0 t
50.47 365.34 187.79 484.47 cl
50.47 365.34 187.79 484.47 cl
0 0 0 srgb
2.25 setlinewidth
[] 0 setdash
0 setlinecap
1 setlinejoin
10.00 setmiterlimit
np
58.74 436.36 m
25.43 0 l
o
0.75 setlinewidth
[ 2.25 3.75] 0 setdash
1 setlinecap
np
71.45 382.58 m
0 44.61 l
o
np
71.45 480.06 m
0 -18.32 l
o
0.75 setlinewidth
[] 0 setdash
np
65.09 382.58 m
12.72 0 l
o
np
65.09 480.06 m
12.72 0 l
o
np
58.74 427.19 m
25.43 0 l
0 34.55 l
-25.43 0 l
0 -34.55 l
o
2.25 setlinewidth
[] 0 setdash
0 setlinecap
np
90.52 384.02 m
25.43 0 l
o
0.75 setlinewidth
[ 2.25 3.75] 0 setdash
1 setlinecap
np
103.24 369.75 m
0 10.12 l
o
np
103.24 399.62 m
0 -10.57 l
o
0.75 setlinewidth
[] 0 setdash
np
96.88 369.75 m
12.72 0 l
o
np
96.88 399.62 m
12.72 0 l
o
np
90.52 379.87 m
25.43 0 l
0 9.18 l
-25.43 0 l
0 -9.18 l
o
103.24 404.78 0.98 c p1
2.25 setlinewidth
[] 0 setdash
0 setlinecap
np
122.31 440.99 m
25.43 0 l
o
0.75 setlinewidth
[ 2.25 3.75] 0 setdash
1 setlinecap
np
135.03 422.46 m
0 12.73 l
o
np
135.03 457.58 m
0 -13.16 l
o
0.75 setlinewidth
[] 0 setdash
np
128.67 422.46 m
12.71 0 l
o
np
128.67 457.58 m
12.71 0 l
o
np
122.31 435.19 m
25.43 0 l
0 9.23 l
-25.43 0 l
0 -9.23 l
o
2.25 setlinewidth
[] 0 setdash
0 setlinecap
np
154.10 431.53 m
25.43 0 l
o
0.75 setlinewidth
[ 2.25 3.75] 0 setdash
1 setlinecap
np
166.81 426.03 m
0 3.31 l
o
np
166.81 437.38 m
0 -4.70 l
o
0.75 setlinewidth
[] 0 setdash
np
160.46 426.03 m
12.71 0 l
o
np
160.46 437.38 m
12.71 0 l
o
np
154.10 429.34 m
25.43 0 l
0 3.34 l
-25.43 0 l
0 -3.34 l
o
18.00 132.94 577.28 708.94 cl
0 0 0 srgb
0.75 setlinewidth
[] 0 setdash
1 setlinecap
1 setlinejoin
10.00 setmiterlimit
np
71.45 365.34 m
95.36 0 l
o
np
71.45 365.34 m
0 -3.96 l
o
np
103.24 365.34 m
0 -3.96 l
o
np
135.03 365.34 m
0 -3.96 l
o
np
166.81 365.34 m
0 -3.96 l
o
/Font1 findfont 7 s
71.45 351.08 (CA_4) .5 0 t
103.24 351.08 (NSGAII_4) .5 0 t
166.81 351.08 (MOEAD_4) .5 0 t
np
50.47 370.25 m
0 108.49 l
o
np
50.47 370.25 m
-3.96 0 l
o
np
50.47 391.94 m
-3.96 0 l
o
np
50.47 413.64 m
-3.96 0 l
o
np
50.47 435.34 m
-3.96 0 l
o
np
50.47 457.04 m
-3.96 0 l
o
np
50.47 478.74 m
-3.96 0 l
o
40.97 370.25 (0.4) .5 90 t
40.97 391.94 (0.6) .5 90 t
40.97 413.64 (0.8) .5 90 t
40.97 435.34 (1.0) .5 90 t
40.97 457.04 (1.2) .5 90 t
40.97 478.74 (1.4) .5 90 t
np
50.47 365.34 m
137.32 0 l
0 119.13 l
-137.32 0 l
0 -119.13 l
o
18.00 324.94 204.43 516.94 cl
/Font2 findfont 8 s
0 0 0 srgb
119.13 497.84 (SPREAD:DTLZ2B) .5 0 t
236.90 365.34 374.22 484.47 cl
236.90 365.34 374.22 484.47 cl
0 0 0 srgb
2.25 setlinewidth
[] 0 setdash
0 setlinecap
1 setlinejoin
10.00 setmiterlimit
np
245.16 422.79 m
25.43 0 l
o
0.75 setlinewidth
[ 2.25 3.75] 0 setdash
1 setlinecap
np
257.88 402.16 m
0 10.36 l
o
np
257.88 450.44 m
0 -20.35 l
o
0.75 setlinewidth
[] 0 setdash
np
251.52 402.16 m
12.71 0 l
o
np
251.52 450.44 m
12.71 0 l
o
np
245.16 412.52 m
25.43 0 l
0 17.57 l
-25.43 0 l
0 -17.57 l
o
257.88 480.06 0.98 c p1
2.25 setlinewidth
[] 0 setdash
0 setlinecap
np
276.95 376.49 m
25.43 0 l
o
0.75 setlinewidth
[ 2.25 3.75] 0 setdash
1 setlinecap
np
289.66 370.56 m
0 4.58 l
o
np
289.66 381.88 m
0 -3.40 l
o
0.75 setlinewidth
[] 0 setdash
np
283.31 370.56 m
12.71 0 l
o
np
283.31 381.88 m
12.71 0 l
o
np
276.95 375.14 m
25.43 0 l
0 3.34 l
-25.43 0 l
0 -3.34 l
o
289.66 369.75 0.98 c p1
2.25 setlinewidth
[] 0 setdash
0 setlinecap
np
308.74 416.10 m
25.43 0 l
o
0.75 setlinewidth
[ 2.25 3.75] 0 setdash
1 setlinecap
np
321.45 381.32 m
0 24.42 l
o
np
321.45 433.38 m
0 -9.69 l
o
0.75 setlinewidth
[] 0 setdash
np
315.09 381.32 m
12.72 0 l
o
np
315.09 433.38 m
12.72 0 l
o
np
308.74 405.74 m
25.43 0 l
0 17.95 l
-25.43 0 l
0 -17.95 l
o
321.45 453.63 0.98 c p1
2.25 setlinewidth
[] 0 setdash
0 setlinecap
np
340.52 408.51 m
25.43 0 l
o
0.75 setlinewidth
[ 2.25 3.75] 0 setdash
1 setlinecap
np
353.24 395.10 m
0 10.69 l
o
np
353.24 418.85 m
0 -5.69 l
o
0.75 setlinewidth
[] 0 setdash
np
346.88 395.10 m
12.72 0 l
o
np
346.88 418.85 m
12.72 0 l
o
np
340.52 405.79 m
25.43 0 l
0 7.37 l
-25.43 0 l
0 -7.37 l
o
353.24 392.34 0.98 c p1
18.00 132.94 577.28 708.94 cl
0 0 0 srgb
0.75 setlinewidth
[] 0 setdash
1 setlinecap
1 setlinejoin
10.00 setmiterlimit
np
257.88 365.34 m
95.36 0 l
o
np
257.88 365.34 m
0 -3.96 l
o
np
289.66 365.34 m
0 -3.96 l
o
np
321.45 365.34 m
0 -3.96 l
o
np
353.24 365.34 m
0 -3.96 l
o
/Font1 findfont 7 s
257.88 351.08 (CA_4) .5 0 t
289.66 351.08 (NSGAII_4) .5 0 t
353.24 351.08 (MOEAD_4) .5 0 t
np
236.90 371.34 m
0 106.71 l
o
np
236.90 371.34 m
-3.96 0 l
o
np
236.90 392.68 m
-3.96 0 l
o
np
236.90 414.02 m
-3.96 0 l
o
np
236.90 435.37 m
-3.96 0 l
o
np
236.90 456.71 m
-3.96 0 l
o
np
236.90 478.05 m
-3.96 0 l
o
227.39 371.34 (0.4) .5 90 t
227.39 392.68 (0.6) .5 90 t
227.39 414.02 (0.8) .5 90 t
227.39 435.37 (1.0) .5 90 t
227.39 456.71 (1.2) .5 90 t
227.39 478.05 (1.4) .5 90 t
np
236.90 365.34 m
137.32 0 l
0 119.13 l
-137.32 0 l
0 -119.13 l
o
204.43 324.94 390.85 516.94 cl
/Font2 findfont 8 s
0 0 0 srgb
305.56 497.84 (SPREAD:WFG6) .5 0 t
423.32 365.34 560.64 484.47 cl
423.32 365.34 560.64 484.47 cl
0 0 0 srgb
2.25 setlinewidth
[] 0 setdash
0 setlinecap
1 setlinejoin
10.00 setmiterlimit
np
431.59 425.60 m
25.43 0 l
o
0.75 setlinewidth
[ 2.25 3.75] 0 setdash
1 setlinecap
np
444.30 402.81 m
0 17.88 l
o
np
444.30 451.16 m
0 -18.22 l
o
0.75 setlinewidth
[] 0 setdash
np
437.94 402.81 m
12.72 0 l
o
np
437.94 451.16 m
12.72 0 l
o
np
431.59 420.69 m
25.43 0 l
0 12.25 l
-25.43 0 l
0 -12.25 l
o
444.30 459.17 0.98 c p1
444.30 394.95 0.98 c p1
444.30 396.73 0.98 c p1
2.25 setlinewidth
[] 0 setdash
0 setlinecap
np
463.37 375.82 m
25.43 0 l
o
0.75 setlinewidth
[ 2.25 3.75] 0 setdash
1 setlinecap
np
476.09 369.75 m
0 3.94 l
o
np
476.09 382.38 m
0 -4.93 l
o
0.75 setlinewidth
[] 0 setdash
np
469.73 369.75 m
12.72 0 l
o
np
469.73 382.38 m
12.72 0 l
o
np
463.37 373.69 m
25.43 0 l
0 3.76 l
-25.43 0 l
0 -3.76 l
o
2.25 setlinewidth
[] 0 setdash
0 setlinecap
np
495.16 435.67 m
25.43 0 l
o
0.75 setlinewidth
[ 2.25 3.75] 0 setdash
1 setlinecap
np
507.88 400.31 m
0 25.04 l
o
np
507.88 464.61 m
0 -19.08 l
o
0.75 setlinewidth
[] 0 setdash
np
501.52 400.31 m
12.71 0 l
o
np
501.52 464.61 m
12.71 0 l
o
np
495.16 425.35 m
25.43 0 l
0 20.18 l
-25.43 0 l
0 -20.18 l
o
507.88 390.72 0.98 c p1
507.88 480.06 0.98 c p1
2.25 setlinewidth
[] 0 setdash
0 setlinecap
np
526.95 404.89 m
25.43 0 l
o
0.75 setlinewidth
[ 2.25 3.75] 0 setdash
1 setlinecap
np
539.66 392.87 m
0 9.49 l
o
np
539.66 418.39 m
0 -8.17 l
o
0.75 setlinewidth
[] 0 setdash
np
533.31 392.87 m
12.71 0 l
o
np
533.31 418.39 m
12.71 0 l
o
np
526.95 402.36 m
25.43 0 l
0 7.86 l
-25.43 0 l
0 -7.86 l
o
18.00 132.94 577.28 708.94 cl
0 0 0 srgb
0.75 setlinewidth
[] 0 setdash
1 setlinecap
1 setlinejoin
10.00 setmiterlimit
np
444.30 365.34 m
95.36 0 l
o
np
444.30 365.34 m
0 -3.96 l
o
np
476.09 365.34 m
0 -3.96 l
o
np
507.88 365.34 m
0 -3.96 l
o
np
539.66 365.34 m
0 -3.96 l
o
/Font1 findfont 7 s
444.30 351.08 (CA_4) .5 0 t
476.09 351.08 (NSGAII_4) .5 0 t
539.66 351.08 (MOEAD_4) .5 0 t
np
423.32 368.84 m
0 102.33 l
o
np
423.32 368.84 m
-3.96 0 l
o
np
423.32 389.30 m
-3.96 0 l
o
np
423.32 409.77 m
-3.96 0 l
o
np
423.32 430.24 m
-3.96 0 l
o
np
423.32 450.70 m
-3.96 0 l
o
np
423.32 471.17 m
-3.96 0 l
o
413.82 368.84 (0.4) .5 90 t
413.82 389.30 (0.6) .5 90 t
413.82 409.77 (0.8) .5 90 t
413.82 430.24 (1.0) .5 90 t
413.82 450.70 (1.2) .5 90 t
413.82 471.17 (1.4) .5 90 t
np
423.32 365.34 m
137.32 0 l
0 119.13 l
-137.32 0 l
0 -119.13 l
o
390.85 324.94 577.28 516.94 cl
/Font2 findfont 8 s
0 0 0 srgb
491.98 497.84 (SPREAD:WFG7) .5 0 t
ep
%%Trailer
%%Pages: 1
%%EOF
